{
  "basePath" : "${rest.createContactType.basepath}",
  "paths" : {
    "/services/hip/contactTypes" : {
      "post" : {
        "x-WM-METHOD_NAME" : "invoke",
        "x-WM-ACCESS_SPECIFIER" : "APP_ONLY",
        "produces" : [ "application/json" ],
        "operationId" : "createContactType_RestServiceVirtualController-invoke",
        "responses" : {
          "200" : {
            "schema" : {
              "$ref" : "#/definitions/RootResponse"
            },
            "description" : "Success"
          }
        },
        "parameters" : [ {
          "schema" : {
            "$ref" : "#/definitions/RootRequest"
          },
          "in" : "body",
          "name" : "RequestBody",
          "description" : "RequestBody",
          "x-WM-FULLY_QUALIFIED_TYPE" : "java.lang.Object",
          "required" : false
        } ],
        "tags" : [ "RestServiceVirtualController" ],
        "consumes" : [ "application/json" ]
      },
      "x-WM-BASE_PATH" : "/services/hip/contactTypes",
      "x-WM-TAG" : "RestServiceVirtualController",
      "x-WM-RELATIVE_PATH" : "",
      "x-WM-COMPLETE_PATH" : "${rest.createContactType.scheme}://${rest.createContactType.host}${rest.createContactType.basepath}/services/hip/contactTypes"
    }
  },
  "host" : "${rest.createContactType.host}",
  "schemes" : [ "${rest.createContactType.scheme}" ],
  "definitions" : {
    "RootRequest" : {
      "x-WM-FULLY_QUALIFIED_NAME" : "createContactType.RootRequest",
      "x-WM-TAGS" : [ "RestServiceVirtualController" ],
      "required" : [ "contactType", "contactTypeId", "createdBy", "createdDatetime", "lastUpdatedDatetime", "updatedBy", "version" ],
      "properties" : {
        "updatedBy" : {
          "format" : "int32",
          "type" : "integer"
        },
        "createdBy" : {
          "format" : "int32",
          "type" : "integer"
        },
        "lastUpdatedDatetime" : {
          "format" : "int64",
          "type" : "integer"
        },
        "contactType" : {
          "type" : "string"
        },
        "createdDatetime" : {
          "format" : "int64",
          "type" : "integer"
        },
        "contactTypeId" : {
          "format" : "int32",
          "type" : "integer"
        },
        "version" : {
          "format" : "int32",
          "type" : "integer"
        }
      }
    },
    "RootResponse" : {
      "x-WM-FULLY_QUALIFIED_NAME" : "createContactType.RootResponse",
      "x-WM-TAGS" : [ "RestServiceVirtualController" ],
      "required" : [ "contactType", "contactTypeId", "createdBy", "createdDatetime", "lastUpdatedDatetime", "updatedBy", "version" ],
      "properties" : {
        "updatedBy" : {
          "format" : "int32",
          "type" : "integer"
        },
        "createdBy" : {
          "format" : "int32",
          "type" : "integer"
        },
        "lastUpdatedDatetime" : {
          "format" : "int64",
          "type" : "integer"
        },
        "contactType" : {
          "type" : "string"
        },
        "createdDatetime" : {
          "format" : "int64",
          "type" : "integer"
        },
        "contactTypeId" : {
          "format" : "int32",
          "type" : "integer"
        },
        "version" : {
          "format" : "int32",
          "type" : "integer"
        }
      }
    }
  },
  "swagger" : "2.0",
  "info" : {
    "x-WM-USE_PROXY_FOR_WEB" : true,
    "x-WM-USE_PROXY_FOR_MOBILE" : true,
    "x-WM-API_ID" : "d6588bb8-31fc-45db-94ed-89c47ba5f8e7",
    "x-WM-SERVICE_ID" : "healthipass",
    "version" : "2.0",
    "x-WM-SERVICE_TYPE" : "RestService"
  },
  "tags" : [ {
    "name" : "RestServiceVirtualController",
    "description" : "Rest service swagger documentation"
  } ]
}