{
  "endpointAddress" : "http://hipxdev-app.healthipass.com/HIP_SVCS/services/HIP/HipCountry",
  "method" : "GET",
  "headers" : { },
  "redirectEnabled" : true,
  "requestBody" : "",
  "queryParams" : { },
  "authDetails" : null,
  "contentType" : "application/json",
  "multiParamInfoList" : null,
  "sampleHttpResponseDetails" : {
    "statusCode" : 0,
    "headers" : { },
    "responseBody" : "{\"content\":[{\"id\":1,\"countryName\":\"Afghanistan\",\"countryLongName\":\"Afghanistan\",\"iso2code\":\"AF\",\"iso3code\":\"AGF\",\"createdBy\":0,\"createdDateTime\":1534309200000,\"updatedBy\":0,\"updatedDateTime\":null},{\"id\":2,\"countryName\":\"Aaland Islands\",\"countryLongName\":\"Aaland Islands\",\"iso2code\":\"AX\",\"iso3code\":\"ALA\",\"createdBy\":0,\"createdDateTime\":1534309200000,\"updatedBy\":0,\"updatedDateTime\":null},{\"id\":3,\"countryName\":\"Albania\",\"countryLongName\":\"Albania\",\"iso2code\":\"AL\",\"iso3code\":\"ALB\",\"createdBy\":0,\"createdDateTime\":1534309200000,\"updatedBy\":null,\"updatedDateTime\":null},{\"id\":4,\"countryName\":\"Algeria\",\"countryLongName\":\"Algeria\",\"iso2code\":\"DZ\",\"iso3code\":\"DZA\",\"createdBy\":0,\"createdDateTime\":1534309200000,\"updatedBy\":null,\"updatedDateTime\":null},{\"id\":5,\"countryName\":\"American Samoa\",\"countryLongName\":\"American Samoa\",\"iso2code\":\"AS\",\"iso3code\":\"ASM\",\"createdBy\":0,\"createdDateTime\":1534309200000,\"updatedBy\":null,\"updatedDateTime\":null},{\"id\":6,\"countryName\":\"Andorra\",\"countryLongName\":\"Andorra\",\"iso2code\":\"AD\",\"iso3code\":\"AND\",\"createdBy\":0,\"createdDateTime\":1534309200000,\"updatedBy\":null,\"updatedDateTime\":null},{\"id\":7,\"countryName\":\"Angola\",\"countryLongName\":\"Angola\",\"iso2code\":\"AO\",\"iso3code\":\"AGO\",\"createdBy\":0,\"createdDateTime\":1534309200000,\"updatedBy\":null,\"updatedDateTime\":null},{\"id\":8,\"countryName\":\"Anguilla\",\"countryLongName\":\"Anguilla\",\"iso2code\":\"AI\",\"iso3code\":\"AIA\",\"createdBy\":0,\"createdDateTime\":1534309200000,\"updatedBy\":null,\"updatedDateTime\":null},{\"id\":9,\"countryName\":\"Antarctica\",\"countryLongName\":\"Antarctica\",\"iso2code\":\"AQ\",\"iso3code\":\"ATA\",\"createdBy\":0,\"createdDateTime\":1534309200000,\"updatedBy\":null,\"updatedDateTime\":null},{\"id\":10,\"countryName\":\"Antigua and Barbuda\",\"countryLongName\":\"Antigua and Barbuda\",\"iso2code\":\"AG\",\"iso3code\":\"ATG\",\"createdBy\":0,\"createdDateTime\":1534309200000,\"updatedBy\":null,\"updatedDateTime\":null},{\"id\":11,\"countryName\":\"Argentina\",\"countryLongName\":\"Argentina\",\"iso2code\":\"AR\",\"iso3code\":\"ARG\",\"createdBy\":0,\"createdDateTime\":1534309200000,\"updatedBy\":null,\"updatedDateTime\":null},{\"id\":12,\"countryName\":\"Armenia\",\"countryLongName\":\"Armenia\",\"iso2code\":\"AM\",\"iso3code\":\"ARM\",\"createdBy\":0,\"createdDateTime\":1534309200000,\"updatedBy\":null,\"updatedDateTime\":null},{\"id\":13,\"countryName\":\"Aruba\",\"countryLongName\":\"Aruba\",\"iso2code\":\"AW\",\"iso3code\":\"ABW\",\"createdBy\":0,\"createdDateTime\":1534309200000,\"updatedBy\":null,\"updatedDateTime\":null},{\"id\":14,\"countryName\":\"Australia\",\"countryLongName\":\"Australia\",\"iso2code\":\"AU\",\"iso3code\":\"AUS\",\"createdBy\":0,\"createdDateTime\":1534309200000,\"updatedBy\":null,\"updatedDateTime\":null},{\"id\":15,\"countryName\":\"Austria\",\"countryLongName\":\"Austria\",\"iso2code\":\"AT\",\"iso3code\":\"AUT\",\"createdBy\":0,\"createdDateTime\":1534309200000,\"updatedBy\":null,\"updatedDateTime\":null},{\"id\":16,\"countryName\":\"Azerbaijan\",\"countryLongName\":\"Azerbaijan\",\"iso2code\":\"AZ\",\"iso3code\":\"AZE\",\"createdBy\":0,\"createdDateTime\":1534309200000,\"updatedBy\":null,\"updatedDateTime\":null},{\"id\":17,\"countryName\":\"Bahamas\",\"countryLongName\":\"Bahamas (the)\",\"iso2code\":\"BS\",\"iso3code\":\"BHS\",\"createdBy\":0,\"createdDateTime\":1534309200000,\"updatedBy\":null,\"updatedDateTime\":null},{\"id\":18,\"countryName\":\"Bahrain\",\"countryLongName\":\"Bahrain\",\"iso2code\":\"BH\",\"iso3code\":\"BHR\",\"createdBy\":0,\"createdDateTime\":1534309200000,\"updatedBy\":null,\"updatedDateTime\":null},{\"id\":19,\"countryName\":\"Bangladesh\",\"countryLongName\":\"Bangladesh\",\"iso2code\":\"BD\",\"iso3code\":\"BGD\",\"createdBy\":0,\"createdDateTime\":1534309200000,\"updatedBy\":null,\"updatedDateTime\":null},{\"id\":20,\"countryName\":\"Barbados\",\"countryLongName\":\"Barbados\",\"iso2code\":\"BB\",\"iso3code\":\"BRB\",\"createdBy\":0,\"createdDateTime\":1534309200000,\"updatedBy\":null,\"updatedDateTime\":null}],\"last\":false,\"totalPages\":13,\"totalElements\":249,\"sort\":[],\"first\":true,\"numberOfElements\":20,\"size\":20,\"number\":0}",
    "convertedResponse" : null
  },
  "proxy" : null
}