{
  "basePath" : "${rest.stateList.basepath}",
  "paths" : {
    "/services/HIP/HipState" : {
      "x-WM-BASE_PATH" : "/services/HIP/HipState",
      "x-WM-TAG" : "RestServiceVirtualController",
      "x-WM-RELATIVE_PATH" : "",
      "get" : {
        "x-WM-METHOD_NAME" : "invoke",
        "x-WM-ACCESS_SPECIFIER" : "APP_ONLY",
        "operationId" : "stateList_RestServiceVirtualController-invoke",
        "responses" : {
          "200" : {
            "schema" : {
              "$ref" : "#/definitions/RootResponse"
            },
            "description" : "Success"
          }
        },
        "parameters" : [ {
          "in" : "query",
          "name" : "q",
          "format" : "string",
          "type" : "string",
          "required" : false
        }, {
          "in" : "query",
          "name" : "size",
          "format" : "string",
          "type" : "string",
          "required" : false
        } ],
        "tags" : [ "RestServiceVirtualController" ],
        "consumes" : [ "application/json" ]
      },
      "x-WM-COMPLETE_PATH" : "${rest.stateList.scheme}://${rest.stateList.host}${rest.stateList.basepath}/services/HIP/HipState"
    }
  },
  "host" : "${rest.stateList.host}",
  "schemes" : [ "${rest.stateList.scheme}" ],
  "definitions" : {
    "contentEntryItem" : {
      "x-WM-FULLY_QUALIFIED_NAME" : "stateList.contentEntryItem",
      "x-WM-TAGS" : [ "RestServiceVirtualController" ],
      "required" : [ "countryId", "createdBy", "createdDateTime", "hipCountry", "id", "stateCode", "stateName", "updatedBy", "updatedDateTime" ],
      "properties" : {
        "updatedBy" : {
          "type" : "string"
        },
        "stateName" : {
          "type" : "string"
        },
        "createdBy" : {
          "format" : "int32",
          "type" : "integer"
        },
        "createdDateTime" : {
          "format" : "int64",
          "type" : "integer"
        },
        "stateCode" : {
          "type" : "string"
        },
        "id" : {
          "format" : "int32",
          "type" : "integer"
        },
        "hipCountry" : {
          "$ref" : "#/definitions/hipCountry"
        },
        "countryId" : {
          "format" : "int32",
          "type" : "integer"
        },
        "updatedDateTime" : {
          "type" : "string"
        }
      }
    },
    "java.lang.Object" : {
      "x-WM-FULLY_QUALIFIED_NAME" : "stateList.java.lang.Object",
      "x-WM-TAGS" : [ "RestServiceVirtualController" ]
    },
    "hipCountry" : {
      "x-WM-FULLY_QUALIFIED_NAME" : "stateList.hipCountry",
      "x-WM-TAGS" : [ "RestServiceVirtualController" ],
      "required" : [ "countryLongName", "countryName", "createdBy", "createdDateTime", "id", "iso2code", "iso3code", "updatedBy", "updatedDateTime" ],
      "properties" : {
        "updatedBy" : {
          "type" : "string"
        },
        "iso3code" : {
          "type" : "string"
        },
        "createdBy" : {
          "format" : "int32",
          "type" : "integer"
        },
        "countryLongName" : {
          "type" : "string"
        },
        "createdDateTime" : {
          "format" : "int64",
          "type" : "integer"
        },
        "id" : {
          "format" : "int32",
          "type" : "integer"
        },
        "countryName" : {
          "type" : "string"
        },
        "iso2code" : {
          "type" : "string"
        },
        "updatedDateTime" : {
          "type" : "string"
        }
      }
    },
    "RootResponse" : {
      "x-WM-FULLY_QUALIFIED_NAME" : "stateList.RootResponse",
      "x-WM-TAGS" : [ "RestServiceVirtualController" ],
      "required" : [ "content", "first", "last", "number", "numberOfElements", "size", "sort", "totalElements", "totalPages" ],
      "properties" : {
        "number" : {
          "format" : "int32",
          "type" : "integer"
        },
        "last" : {
          "type" : "boolean"
        },
        "numberOfElements" : {
          "format" : "int32",
          "type" : "integer"
        },
        "size" : {
          "format" : "int32",
          "type" : "integer"
        },
        "totalPages" : {
          "format" : "int32",
          "type" : "integer"
        },
        "sort" : {
          "x-WM-IS_LIST" : true,
          "type" : "array",
          "items" : {
            "$ref" : "#/definitions/java.lang.Object"
          }
        },
        "content" : {
          "x-WM-IS_LIST" : true,
          "type" : "array",
          "items" : {
            "$ref" : "#/definitions/contentEntryItem"
          }
        },
        "first" : {
          "type" : "boolean"
        },
        "totalElements" : {
          "format" : "int32",
          "type" : "integer"
        }
      }
    }
  },
  "swagger" : "2.0",
  "info" : {
    "x-WM-USE_PROXY_FOR_WEB" : true,
    "x-WM-USE_PROXY_FOR_MOBILE" : true,
    "x-WM-API_ID" : "b4f82757-f26e-4d97-8835-1236072e125f",
    "x-WM-SERVICE_ID" : "healthipass",
    "version" : "2.0",
    "x-WM-SERVICE_TYPE" : "RestService"
  },
  "tags" : [ {
    "name" : "RestServiceVirtualController",
    "description" : "Rest service swagger documentation"
  } ]
}