{
  "basePath" : "${rest.editClientLocationConfig.basepath}",
  "paths" : {
    "/services/hip/clientLocationConfigs/{id}" : {
      "x-WM-BASE_PATH" : "/services/hip/clientLocationConfigs/{id}",
      "x-WM-TAG" : "RestServiceVirtualController",
      "x-WM-RELATIVE_PATH" : "",
      "x-WM-COMPLETE_PATH" : "${rest.editClientLocationConfig.scheme}://${rest.editClientLocationConfig.host}${rest.editClientLocationConfig.basepath}/services/hip/clientLocationConfigs/{id}",
      "put" : {
        "x-WM-METHOD_NAME" : "invoke",
        "x-WM-ACCESS_SPECIFIER" : "APP_ONLY",
        "produces" : [ "application/json" ],
        "operationId" : "editClientLocationConfig_RestServiceVirtualController-invoke",
        "responses" : {
          "200" : {
            "schema" : {
              "$ref" : "#/definitions/RootResponse"
            },
            "description" : "Success"
          }
        },
        "parameters" : [ {
          "schema" : {
            "$ref" : "#/definitions/RootRequest"
          },
          "in" : "body",
          "name" : "RequestBody",
          "description" : "RequestBody",
          "x-WM-FULLY_QUALIFIED_TYPE" : "java.lang.Object",
          "required" : false
        }, {
          "in" : "path",
          "name" : "id",
          "type" : "string",
          "required" : true
        } ],
        "tags" : [ "RestServiceVirtualController" ],
        "consumes" : [ "application/json" ]
      }
    }
  },
  "host" : "${rest.editClientLocationConfig.host}",
  "schemes" : [ "${rest.editClientLocationConfig.scheme}" ],
  "definitions" : {
    "hipClient" : {
      "x-WM-FULLY_QUALIFIED_NAME" : "editClientLocationConfig.hipClient",
      "x-WM-TAGS" : [ "RestServiceVirtualController" ],
      "required" : [ "clientBusinessName", "clientCode", "clientId", "clientShortName", "clientStatus", "clientWebSite", "createdBy", "createdDatetime", "lastUpdatedDatetime", "updatedBy", "version" ],
      "properties" : {
        "clientId" : {
          "format" : "int32",
          "type" : "integer"
        },
        "updatedBy" : {
          "format" : "int32",
          "type" : "integer"
        },
        "clientBusinessName" : {
          "type" : "string"
        },
        "clientShortName" : {
          "type" : "string"
        },
        "createdBy" : {
          "format" : "int32",
          "type" : "integer"
        },
        "clientCode" : {
          "type" : "string"
        },
        "clientWebSite" : {
          "type" : "string"
        },
        "clientStatus" : {
          "type" : "string"
        },
        "lastUpdatedDatetime" : {
          "format" : "int64",
          "type" : "integer"
        },
        "createdDatetime" : {
          "format" : "int64",
          "type" : "integer"
        },
        "version" : {
          "format" : "int32",
          "type" : "integer"
        }
      }
    },
    "hipClientLocation" : {
      "x-WM-FULLY_QUALIFIED_NAME" : "editClientLocationConfig.hipClientLocation",
      "x-WM-TAGS" : [ "RestServiceVirtualController" ],
      "required" : [ "address1", "address2", "city", "clientId", "clientLocationId", "createdBy", "createdDatetime", "emailId", "fax", "hipClient", "hipClientLocationByParentLocationId", "hipState", "hipTimezone", "lastUpdatedDatetime", "locStatus", "locationDescription", "locationLabel", "locationName", "parentLocationId", "phoneNumber", "pmLocationId", "pmLocationName", "shortLocationName", "stateId", "timezoneId", "updatedBy", "version", "zip" ],
      "properties" : {
        "city" : {
          "type" : "string"
        },
        "locationDescription" : {
          "type" : "string"
        },
        "clientLocationId" : {
          "format" : "int32",
          "type" : "integer"
        },
        "emailId" : {
          "type" : "string"
        },
        "hipState" : {
          "$ref" : "#/definitions/hipState"
        },
        "shortLocationName" : {
          "type" : "string"
        },
        "fax" : {
          "type" : "string"
        },
        "pmLocationId" : {
          "type" : "string"
        },
        "pmLocationName" : {
          "type" : "string"
        },
        "zip" : {
          "type" : "string"
        },
        "hipClient" : {
          "$ref" : "#/definitions/hipClient"
        },
        "parentLocationId" : {
          "type" : "string"
        },
        "clientId" : {
          "format" : "int32",
          "type" : "integer"
        },
        "locationName" : {
          "type" : "string"
        },
        "updatedBy" : {
          "type" : "string"
        },
        "address2" : {
          "type" : "string"
        },
        "address1" : {
          "type" : "string"
        },
        "hipClientLocationByParentLocationId" : {
          "type" : "string"
        },
        "stateId" : {
          "format" : "int32",
          "type" : "integer"
        },
        "lastUpdatedDatetime" : {
          "type" : "string"
        },
        "locationLabel" : {
          "type" : "string"
        },
        "version" : {
          "format" : "int32",
          "type" : "integer"
        },
        "locStatus" : {
          "type" : "string"
        },
        "phoneNumber" : {
          "type" : "string"
        },
        "createdBy" : {
          "type" : "string"
        },
        "timezoneId" : {
          "format" : "int32",
          "type" : "integer"
        },
        "createdDatetime" : {
          "type" : "string"
        },
        "hipTimezone" : {
          "$ref" : "#/definitions/hipTimezone"
        }
      }
    },
    "hipConfig" : {
      "x-WM-FULLY_QUALIFIED_NAME" : "editClientLocationConfig.hipConfig",
      "x-WM-TAGS" : [ "RestServiceVirtualController" ],
      "required" : [ "configDescription", "configId", "configKey", "configName", "createdBy", "createdDatetime", "dataType", "lastUpdatedDatetime", "updatedBy", "version" ],
      "properties" : {
        "configName" : {
          "type" : "string"
        },
        "configKey" : {
          "type" : "string"
        },
        "updatedBy" : {
          "format" : "int32",
          "type" : "integer"
        },
        "createdBy" : {
          "format" : "int32",
          "type" : "integer"
        },
        "configId" : {
          "format" : "int32",
          "type" : "integer"
        },
        "configDescription" : {
          "type" : "string"
        },
        "dataType" : {
          "type" : "string"
        },
        "lastUpdatedDatetime" : {
          "format" : "int64",
          "type" : "integer"
        },
        "createdDatetime" : {
          "format" : "int64",
          "type" : "integer"
        },
        "version" : {
          "format" : "int32",
          "type" : "integer"
        }
      }
    },
    "RootRequest" : {
      "x-WM-FULLY_QUALIFIED_NAME" : "editClientLocationConfig.RootRequest",
      "x-WM-TAGS" : [ "RestServiceVirtualController" ],
      "required" : [ "clientLocationConfigId", "clientLocationId", "configId", "configStatus", "configValue", "createdBy", "createdDatetime", "lastUpdatedDatetime", "locConfigDescription", "updatedBy", "version" ],
      "properties" : {
        "clientLocationConfigId" : {
          "format" : "int32",
          "type" : "integer"
        },
        "updatedBy" : {
          "type" : "string"
        },
        "createdBy" : {
          "type" : "string"
        },
        "configId" : {
          "format" : "int32",
          "type" : "integer"
        },
        "lastUpdatedDatetime" : {
          "type" : "string"
        },
        "clientLocationId" : {
          "format" : "int32",
          "type" : "integer"
        },
        "createdDatetime" : {
          "type" : "string"
        },
        "configStatus" : {
          "type" : "string"
        },
        "locConfigDescription" : {
          "type" : "string"
        },
        "configValue" : {
          "type" : "string"
        },
        "version" : {
          "format" : "int32",
          "type" : "integer"
        }
      }
    },
    "hipTimezone" : {
      "x-WM-FULLY_QUALIFIED_NAME" : "editClientLocationConfig.hipTimezone",
      "x-WM-TAGS" : [ "RestServiceVirtualController" ],
      "required" : [ "locationName", "timezoneId", "timezoneName" ],
      "properties" : {
        "locationName" : {
          "type" : "string"
        },
        "timezoneId" : {
          "format" : "int32",
          "type" : "integer"
        },
        "timezoneName" : {
          "type" : "string"
        }
      }
    },
    "hipCountry" : {
      "x-WM-FULLY_QUALIFIED_NAME" : "editClientLocationConfig.hipCountry",
      "x-WM-TAGS" : [ "RestServiceVirtualController" ],
      "required" : [ "countryId", "countryLongName", "countryName", "createdBy", "createdDatetime", "iso2Code", "iso3Code", "lastUpdatedDatetime", "updatedBy", "version" ],
      "properties" : {
        "updatedBy" : {
          "type" : "string"
        },
        "createdBy" : {
          "format" : "int32",
          "type" : "integer"
        },
        "countryLongName" : {
          "type" : "string"
        },
        "iso2Code" : {
          "type" : "string"
        },
        "lastUpdatedDatetime" : {
          "type" : "string"
        },
        "createdDatetime" : {
          "type" : "string"
        },
        "countryName" : {
          "type" : "string"
        },
        "iso3Code" : {
          "type" : "string"
        },
        "version" : {
          "format" : "int32",
          "type" : "integer"
        },
        "countryId" : {
          "format" : "int32",
          "type" : "integer"
        }
      }
    },
    "hipState" : {
      "x-WM-FULLY_QUALIFIED_NAME" : "editClientLocationConfig.hipState",
      "x-WM-TAGS" : [ "RestServiceVirtualController" ],
      "required" : [ "countryId", "hipCountry", "stateCode", "stateId", "stateName" ],
      "properties" : {
        "stateName" : {
          "type" : "string"
        },
        "stateId" : {
          "format" : "int32",
          "type" : "integer"
        },
        "stateCode" : {
          "type" : "string"
        },
        "hipCountry" : {
          "$ref" : "#/definitions/hipCountry"
        },
        "countryId" : {
          "format" : "int32",
          "type" : "integer"
        }
      }
    },
    "RootResponse" : {
      "x-WM-FULLY_QUALIFIED_NAME" : "editClientLocationConfig.RootResponse",
      "x-WM-TAGS" : [ "RestServiceVirtualController" ],
      "required" : [ "clientLocationConfigId", "clientLocationId", "configId", "configStatus", "configValue", "createdBy", "createdDatetime", "hipClientLocation", "hipConfig", "lastUpdatedDatetime", "locConfigDescription", "updatedBy", "version" ],
      "properties" : {
        "updatedBy" : {
          "type" : "string"
        },
        "lastUpdatedDatetime" : {
          "type" : "string"
        },
        "clientLocationId" : {
          "format" : "int32",
          "type" : "integer"
        },
        "configStatus" : {
          "type" : "string"
        },
        "configValue" : {
          "type" : "string"
        },
        "version" : {
          "format" : "int32",
          "type" : "integer"
        },
        "clientLocationConfigId" : {
          "format" : "int32",
          "type" : "integer"
        },
        "createdBy" : {
          "type" : "string"
        },
        "configId" : {
          "format" : "int32",
          "type" : "integer"
        },
        "hipClientLocation" : {
          "$ref" : "#/definitions/hipClientLocation"
        },
        "hipConfig" : {
          "$ref" : "#/definitions/hipConfig"
        },
        "createdDatetime" : {
          "type" : "string"
        },
        "locConfigDescription" : {
          "type" : "string"
        }
      }
    }
  },
  "swagger" : "2.0",
  "info" : {
    "x-WM-USE_PROXY_FOR_WEB" : true,
    "x-WM-USE_PROXY_FOR_MOBILE" : true,
    "x-WM-API_ID" : "51d9332f-8939-4fe6-b3f9-c0ab7c8bb161",
    "x-WM-SERVICE_ID" : "healthipass",
    "version" : "2.0",
    "x-WM-SERVICE_TYPE" : "RestService"
  },
  "tags" : [ {
    "name" : "RestServiceVirtualController",
    "description" : "Rest service swagger documentation"
  } ]
}