{
  "swagger" : "2.0",
  "info" : {
    "version" : "2.0",
    "x-WM-USE_PROXY_FOR_WEB" : true,
    "x-WM-USE_PROXY_FOR_MOBILE" : true,
    "x-WM-API_ID" : "06dbe8c0-6ff8-40a9-912d-88eebf18acd9",
    "x-WM-SERVICE_ID" : "healthipass",
    "x-WM-SERVICE_TYPE" : "RestService"
  },
  "host" : "hipxdev-app.healthipass.com",
  "basePath" : "/HIP_SVCS",
  "tags" : [ {
    "name" : "RestServiceVirtualController",
    "description" : "Rest service swagger documentation"
  } ],
  "schemes" : [ "http" ],
  "paths" : {
    "/services/HIP/HipTimezone" : {
      "get" : {
        "tags" : [ "RestServiceVirtualController" ],
        "operationId" : "timeZoneList_RestServiceVirtualController-invoke",
        "consumes" : [ "application/json" ],
        "responses" : {
          "200" : {
            "description" : "Success",
            "schema" : {
              "$ref" : "#/definitions/RootResponse"
            }
          }
        },
        "x-WM-METHOD_NAME" : "invoke",
        "x-WM-ACCESS_SPECIFIER" : "APP_ONLY"
      },
      "x-WM-BASE_PATH" : "/services/HIP/HipTimezone",
      "x-WM-TAG" : "RestServiceVirtualController",
      "x-WM-RELATIVE_PATH" : "",
      "x-WM-COMPLETE_PATH" : "${rest.timeZoneList.scheme}://${rest.timeZoneList.host}${rest.timeZoneList.basepath}/services/HIP/HipTimezone"
    }
  },
  "definitions" : {
    "contentEntryItem" : {
      "required" : [ "createdBy", "createdDateTime", "gmtOffset", "id", "timezoneName", "updatedBy", "updatedDateTime" ],
      "properties" : {
        "updatedBy" : {
          "type" : "string"
        },
        "createdBy" : {
          "type" : "integer",
          "format" : "int32"
        },
        "gmtOffset" : {
          "type" : "string"
        },
        "timezoneName" : {
          "type" : "string"
        },
        "createdDateTime" : {
          "type" : "integer",
          "format" : "int64"
        },
        "id" : {
          "type" : "integer",
          "format" : "int32"
        },
        "updatedDateTime" : {
          "type" : "integer",
          "format" : "int64"
        }
      },
      "x-WM-FULLY_QUALIFIED_NAME" : "timeZoneList.contentEntryItem",
      "x-WM-TAGS" : [ "RestServiceVirtualController" ]
    },
    "java.lang.Object" : {
      "x-WM-FULLY_QUALIFIED_NAME" : "timeZoneList.java.lang.Object",
      "x-WM-TAGS" : [ "RestServiceVirtualController" ]
    },
    "RootResponse" : {
      "required" : [ "content", "first", "last", "number", "numberOfElements", "size", "sort", "totalElements", "totalPages" ],
      "properties" : {
        "number" : {
          "type" : "integer",
          "format" : "int32"
        },
        "last" : {
          "type" : "boolean"
        },
        "numberOfElements" : {
          "type" : "integer",
          "format" : "int32"
        },
        "size" : {
          "type" : "integer",
          "format" : "int32"
        },
        "totalPages" : {
          "type" : "integer",
          "format" : "int32"
        },
        "sort" : {
          "type" : "array",
          "items" : {
            "$ref" : "#/definitions/java.lang.Object"
          },
          "x-WM-IS_LIST" : true
        },
        "content" : {
          "type" : "array",
          "items" : {
            "$ref" : "#/definitions/contentEntryItem"
          },
          "x-WM-IS_LIST" : true
        },
        "first" : {
          "type" : "boolean"
        },
        "totalElements" : {
          "type" : "integer",
          "format" : "int32"
        }
      },
      "x-WM-FULLY_QUALIFIED_NAME" : "timeZoneList.RootResponse",
      "x-WM-TAGS" : [ "RestServiceVirtualController" ]
    }
  }
}