{
  "basePath" : "${rest.clientLocationConfigList.basepath}",
  "paths" : {
    "/services/hip/clientLocationConfigs" : {
      "x-WM-BASE_PATH" : "/services/hip/clientLocationConfigs",
      "x-WM-TAG" : "RestServiceVirtualController",
      "x-WM-RELATIVE_PATH" : "",
      "get" : {
        "x-WM-METHOD_NAME" : "invoke",
        "x-WM-ACCESS_SPECIFIER" : "APP_ONLY",
        "operationId" : "clientLocationConfigList_RestServiceVirtualController-invoke",
        "responses" : {
          "200" : {
            "schema" : {
              "$ref" : "#/definitions/RootResponse"
            },
            "description" : "Success"
          }
        },
        "parameters" : [ {
          "in" : "query",
          "name" : "q",
          "format" : "string",
          "type" : "string",
          "required" : false
        }, {
          "in" : "query",
          "name" : "size",
          "format" : "string",
          "type" : "string",
          "required" : false
        }, {
          "in" : "query",
          "name" : "page",
          "format" : "string",
          "type" : "string",
          "required" : false
        }, {
          "in" : "query",
          "name" : "sort",
          "format" : "string",
          "type" : "string",
          "required" : false
        } ],
        "tags" : [ "RestServiceVirtualController" ],
        "consumes" : [ "application/json" ]
      },
      "x-WM-COMPLETE_PATH" : "${rest.clientLocationConfigList.scheme}://${rest.clientLocationConfigList.host}${rest.clientLocationConfigList.basepath}/services/hip/clientLocationConfigs"
    }
  },
  "host" : "${rest.clientLocationConfigList.host}",
  "schemes" : [ "${rest.clientLocationConfigList.scheme}" ],
  "definitions" : {
    "hipClient" : {
      "x-WM-FULLY_QUALIFIED_NAME" : "clientLocationConfigList.hipClient",
      "x-WM-TAGS" : [ "RestServiceVirtualController" ],
      "required" : [ "clientBusinessName", "clientCode", "clientId", "clientShortName", "clientStatus", "clientWebSite", "createdBy", "createdDatetime", "lastUpdatedDatetime", "updatedBy", "version" ],
      "properties" : {
        "clientId" : {
          "format" : "int32",
          "type" : "integer"
        },
        "updatedBy" : {
          "format" : "int32",
          "type" : "integer"
        },
        "clientBusinessName" : {
          "type" : "string"
        },
        "clientShortName" : {
          "type" : "string"
        },
        "createdBy" : {
          "format" : "int32",
          "type" : "integer"
        },
        "clientCode" : {
          "type" : "string"
        },
        "clientWebSite" : {
          "type" : "string"
        },
        "clientStatus" : {
          "type" : "string"
        },
        "lastUpdatedDatetime" : {
          "format" : "int64",
          "type" : "integer"
        },
        "createdDatetime" : {
          "format" : "int64",
          "type" : "integer"
        },
        "version" : {
          "format" : "int32",
          "type" : "integer"
        }
      }
    },
    "hipClientLocation" : {
      "x-WM-FULLY_QUALIFIED_NAME" : "clientLocationConfigList.hipClientLocation",
      "x-WM-TAGS" : [ "RestServiceVirtualController" ],
      "required" : [ "address1", "address2", "city", "clientId", "clientLocationId", "createdBy", "createdDatetime", "emailId", "faxNumber", "hipClient", "hipClientLocationByParentLocationId", "hipState", "hipTimezone", "lastUpdatedDatetime", "locationDescription", "locationName", "locationStatus", "parentLocationId", "phoneNumber", "pmLocationId", "pmLocationName", "shortLocationName", "stateId", "timezoneId", "updatedBy", "version", "zip" ],
      "properties" : {
        "city" : {
          "type" : "string"
        },
        "locationDescription" : {
          "type" : "string"
        },
        "clientLocationId" : {
          "format" : "int32",
          "type" : "integer"
        },
        "emailId" : {
          "type" : "string"
        },
        "hipState" : {
          "$ref" : "#/definitions/hipState"
        },
        "locationStatus" : {
          "type" : "string"
        },
        "shortLocationName" : {
          "type" : "string"
        },
        "pmLocationId" : {
          "type" : "string"
        },
        "pmLocationName" : {
          "type" : "string"
        },
        "zip" : {
          "type" : "string"
        },
        "hipClient" : {
          "$ref" : "#/definitions/hipClient"
        },
        "parentLocationId" : {
          "format" : "int32",
          "type" : "integer"
        },
        "clientId" : {
          "format" : "int32",
          "type" : "integer"
        },
        "locationName" : {
          "type" : "string"
        },
        "updatedBy" : {
          "type" : "string"
        },
        "address2" : {
          "type" : "string"
        },
        "address1" : {
          "type" : "string"
        },
        "hipClientLocationByParentLocationId" : {
          "$ref" : "#/definitions/hipClientLocationByParentLocationId"
        },
        "stateId" : {
          "format" : "int32",
          "type" : "integer"
        },
        "lastUpdatedDatetime" : {
          "type" : "string"
        },
        "version" : {
          "format" : "int32",
          "type" : "integer"
        },
        "phoneNumber" : {
          "type" : "string"
        },
        "createdBy" : {
          "type" : "string"
        },
        "faxNumber" : {
          "type" : "string"
        },
        "timezoneId" : {
          "format" : "int32",
          "type" : "integer"
        },
        "createdDatetime" : {
          "format" : "int64",
          "type" : "integer"
        },
        "hipTimezone" : {
          "$ref" : "#/definitions/hipTimezone"
        }
      }
    },
    "hipClientLocationByParentLocationId" : {
      "x-WM-FULLY_QUALIFIED_NAME" : "clientLocationConfigList.hipClientLocationByParentLocationId",
      "x-WM-TAGS" : [ "RestServiceVirtualController" ],
      "required" : [ "address1", "address2", "city", "clientId", "clientLocationId", "createdBy", "createdDatetime", "emailId", "faxNumber", "hipClient", "hipState", "hipTimezone", "lastUpdatedDatetime", "locationDescription", "locationName", "locationStatus", "parentLocationId", "phoneNumber", "pmLocationId", "pmLocationName", "shortLocationName", "stateId", "timezoneId", "updatedBy", "version", "zip" ],
      "properties" : {
        "city" : {
          "type" : "string"
        },
        "locationDescription" : {
          "type" : "string"
        },
        "clientLocationId" : {
          "format" : "int32",
          "type" : "integer"
        },
        "emailId" : {
          "type" : "string"
        },
        "hipState" : {
          "$ref" : "#/definitions/hipState"
        },
        "locationStatus" : {
          "type" : "string"
        },
        "shortLocationName" : {
          "type" : "string"
        },
        "pmLocationId" : {
          "type" : "string"
        },
        "pmLocationName" : {
          "type" : "string"
        },
        "zip" : {
          "type" : "string"
        },
        "hipClient" : {
          "$ref" : "#/definitions/hipClient"
        },
        "parentLocationId" : {
          "format" : "int32",
          "type" : "integer"
        },
        "clientId" : {
          "format" : "int32",
          "type" : "integer"
        },
        "locationName" : {
          "type" : "string"
        },
        "updatedBy" : {
          "type" : "string"
        },
        "address2" : {
          "type" : "string"
        },
        "address1" : {
          "type" : "string"
        },
        "stateId" : {
          "format" : "int32",
          "type" : "integer"
        },
        "lastUpdatedDatetime" : {
          "type" : "string"
        },
        "version" : {
          "format" : "int32",
          "type" : "integer"
        },
        "phoneNumber" : {
          "type" : "string"
        },
        "createdBy" : {
          "type" : "string"
        },
        "faxNumber" : {
          "type" : "string"
        },
        "timezoneId" : {
          "format" : "int32",
          "type" : "integer"
        },
        "createdDatetime" : {
          "format" : "int64",
          "type" : "integer"
        },
        "hipTimezone" : {
          "$ref" : "#/definitions/hipTimezone"
        }
      }
    },
    "hipConfig" : {
      "x-WM-FULLY_QUALIFIED_NAME" : "clientLocationConfigList.hipConfig",
      "x-WM-TAGS" : [ "RestServiceVirtualController" ],
      "required" : [ "configDescription", "configId", "configKey", "configName", "createdBy", "createdDatetime", "dataType", "lastUpdatedDatetime", "updatedBy", "version" ],
      "properties" : {
        "configName" : {
          "type" : "string"
        },
        "configKey" : {
          "type" : "string"
        },
        "updatedBy" : {
          "format" : "int32",
          "type" : "integer"
        },
        "createdBy" : {
          "format" : "int32",
          "type" : "integer"
        },
        "configId" : {
          "format" : "int32",
          "type" : "integer"
        },
        "configDescription" : {
          "type" : "string"
        },
        "dataType" : {
          "type" : "string"
        },
        "lastUpdatedDatetime" : {
          "format" : "int64",
          "type" : "integer"
        },
        "createdDatetime" : {
          "format" : "int64",
          "type" : "integer"
        },
        "version" : {
          "format" : "int32",
          "type" : "integer"
        }
      }
    },
    "contentEntryItem" : {
      "x-WM-FULLY_QUALIFIED_NAME" : "clientLocationConfigList.contentEntryItem",
      "x-WM-TAGS" : [ "RestServiceVirtualController" ],
      "required" : [ "clientLocationConfigId", "clientLocationId", "configDescription", "configId", "configStatus", "configValue", "createdBy", "createdDatetime", "hipClientLocation", "hipConfig", "lastUpdatedDatetime", "updatedBy", "version" ],
      "properties" : {
        "updatedBy" : {
          "type" : "string"
        },
        "lastUpdatedDatetime" : {
          "type" : "string"
        },
        "clientLocationId" : {
          "format" : "int32",
          "type" : "integer"
        },
        "configStatus" : {
          "type" : "string"
        },
        "configValue" : {
          "type" : "string"
        },
        "version" : {
          "format" : "int32",
          "type" : "integer"
        },
        "clientLocationConfigId" : {
          "format" : "int32",
          "type" : "integer"
        },
        "createdBy" : {
          "type" : "string"
        },
        "configId" : {
          "format" : "int32",
          "type" : "integer"
        },
        "configDescription" : {
          "type" : "string"
        },
        "hipClientLocation" : {
          "$ref" : "#/definitions/hipClientLocation"
        },
        "hipConfig" : {
          "$ref" : "#/definitions/hipConfig"
        },
        "createdDatetime" : {
          "format" : "int64",
          "type" : "integer"
        }
      }
    },
    "hipTimezone" : {
      "x-WM-FULLY_QUALIFIED_NAME" : "clientLocationConfigList.hipTimezone",
      "x-WM-TAGS" : [ "RestServiceVirtualController" ],
      "required" : [ "locationName", "timezoneId", "timezoneName" ],
      "properties" : {
        "locationName" : {
          "type" : "string"
        },
        "timezoneId" : {
          "format" : "int32",
          "type" : "integer"
        },
        "timezoneName" : {
          "type" : "string"
        }
      }
    },
    "sortEntryItem" : {
      "x-WM-FULLY_QUALIFIED_NAME" : "clientLocationConfigList.sortEntryItem",
      "x-WM-TAGS" : [ "RestServiceVirtualController" ],
      "required" : [ "ascending", "direction", "ignoreCase", "nullHandling", "property" ],
      "properties" : {
        "nullHandling" : {
          "type" : "string"
        },
        "ignoreCase" : {
          "type" : "boolean"
        },
        "property" : {
          "type" : "string"
        },
        "ascending" : {
          "type" : "boolean"
        },
        "direction" : {
          "type" : "string"
        }
      }
    },
    "hipCountry" : {
      "x-WM-FULLY_QUALIFIED_NAME" : "clientLocationConfigList.hipCountry",
      "x-WM-TAGS" : [ "RestServiceVirtualController" ],
      "required" : [ "countryId", "countryLongName", "countryName", "createdBy", "createdDatetime", "iso2Code", "iso3Code", "lastUpdatedDatetime", "updatedBy", "version" ],
      "properties" : {
        "updatedBy" : {
          "type" : "string"
        },
        "createdBy" : {
          "format" : "int32",
          "type" : "integer"
        },
        "countryLongName" : {
          "type" : "string"
        },
        "iso2Code" : {
          "type" : "string"
        },
        "lastUpdatedDatetime" : {
          "type" : "string"
        },
        "createdDatetime" : {
          "type" : "string"
        },
        "countryName" : {
          "type" : "string"
        },
        "iso3Code" : {
          "type" : "string"
        },
        "version" : {
          "format" : "int32",
          "type" : "integer"
        },
        "countryId" : {
          "format" : "int32",
          "type" : "integer"
        }
      }
    },
    "hipState" : {
      "x-WM-FULLY_QUALIFIED_NAME" : "clientLocationConfigList.hipState",
      "x-WM-TAGS" : [ "RestServiceVirtualController" ],
      "required" : [ "countryId", "hipCountry", "stateCode", "stateId", "stateName" ],
      "properties" : {
        "stateName" : {
          "type" : "string"
        },
        "stateId" : {
          "format" : "int32",
          "type" : "integer"
        },
        "stateCode" : {
          "type" : "string"
        },
        "hipCountry" : {
          "$ref" : "#/definitions/hipCountry"
        },
        "countryId" : {
          "format" : "int32",
          "type" : "integer"
        }
      }
    },
    "RootResponse" : {
      "x-WM-FULLY_QUALIFIED_NAME" : "clientLocationConfigList.RootResponse",
      "x-WM-TAGS" : [ "RestServiceVirtualController" ],
      "required" : [ "content", "first", "last", "number", "numberOfElements", "size", "sort", "totalElements", "totalPages" ],
      "properties" : {
        "number" : {
          "format" : "int32",
          "type" : "integer"
        },
        "last" : {
          "type" : "boolean"
        },
        "numberOfElements" : {
          "format" : "int32",
          "type" : "integer"
        },
        "size" : {
          "format" : "int32",
          "type" : "integer"
        },
        "totalPages" : {
          "format" : "int32",
          "type" : "integer"
        },
        "sort" : {
          "x-WM-IS_LIST" : true,
          "type" : "array",
          "items" : {
            "$ref" : "#/definitions/sortEntryItem"
          }
        },
        "content" : {
          "x-WM-IS_LIST" : true,
          "type" : "array",
          "items" : {
            "$ref" : "#/definitions/contentEntryItem"
          }
        },
        "first" : {
          "type" : "boolean"
        },
        "totalElements" : {
          "format" : "int32",
          "type" : "integer"
        }
      }
    }
  },
  "swagger" : "2.0",
  "info" : {
    "x-WM-USE_PROXY_FOR_WEB" : true,
    "x-WM-USE_PROXY_FOR_MOBILE" : true,
    "x-WM-API_ID" : "20f0db54-6dff-460d-a63a-cae01eb59050",
    "x-WM-SERVICE_ID" : "healthipass",
    "version" : "2.0",
    "x-WM-SERVICE_TYPE" : "RestService"
  },
  "tags" : [ {
    "name" : "RestServiceVirtualController",
    "description" : "Rest service swagger documentation"
  } ]
}