{
  "swagger" : "2.0",
  "info" : {
    "version" : "2.0",
    "x-WM-USE_PROXY_FOR_WEB" : true,
    "x-WM-USE_PROXY_FOR_MOBILE" : true,
    "x-WM-API_ID" : "ef01bfca-1124-499e-9a7b-4106530c5181",
    "x-WM-SERVICE_ID" : "healthipass",
    "x-WM-SERVICE_TYPE" : "RestService"
  },
  "host" : "hipxdev-app.healthipass.com",
  "basePath" : "/HIP_SVCS",
  "tags" : [ {
    "name" : "RestServiceVirtualController",
    "description" : "Rest service swagger documentation"
  } ],
  "schemes" : [ "http" ],
  "paths" : {
    "/services/hip/clientLocationConfigs" : {
      "post" : {
        "tags" : [ "RestServiceVirtualController" ],
        "operationId" : "createClientLocationConfig_RestServiceVirtualController-invoke",
        "consumes" : [ "application/json" ],
        "produces" : [ "application/json" ],
        "parameters" : [ {
          "in" : "body",
          "name" : "RequestBody",
          "description" : "RequestBody",
          "required" : false,
          "schema" : {
            "$ref" : "#/definitions/RootRequest"
          },
          "x-WM-FULLY_QUALIFIED_TYPE" : "java.lang.Object"
        } ],
        "responses" : {
          "200" : {
            "description" : "Success",
            "schema" : {
              "$ref" : "#/definitions/RootResponse"
            }
          }
        },
        "x-WM-METHOD_NAME" : "invoke",
        "x-WM-ACCESS_SPECIFIER" : "APP_ONLY"
      },
      "x-WM-BASE_PATH" : "/services/hip/clientLocationConfigs",
      "x-WM-TAG" : "RestServiceVirtualController",
      "x-WM-RELATIVE_PATH" : "",
      "x-WM-COMPLETE_PATH" : "${rest.createClientLocationConfig.scheme}://${rest.createClientLocationConfig.host}${rest.createClientLocationConfig.basepath}/services/hip/clientLocationConfigs"
    }
  },
  "definitions" : {
    "hipClient" : {
      "required" : [ "clientBusinessName", "clientCode", "clientId", "clientShortName", "clientStatus", "clientWebSite", "createdBy", "createdDatetime", "lastUpdatedDatetime", "updatedBy", "version" ],
      "properties" : {
        "clientId" : {
          "type" : "integer",
          "format" : "int32"
        },
        "updatedBy" : {
          "type" : "integer",
          "format" : "int32"
        },
        "clientBusinessName" : {
          "type" : "string"
        },
        "clientShortName" : {
          "type" : "string"
        },
        "createdBy" : {
          "type" : "integer",
          "format" : "int32"
        },
        "clientCode" : {
          "type" : "string"
        },
        "clientWebSite" : {
          "type" : "string"
        },
        "clientStatus" : {
          "type" : "string"
        },
        "lastUpdatedDatetime" : {
          "type" : "integer",
          "format" : "int64"
        },
        "createdDatetime" : {
          "type" : "integer",
          "format" : "int64"
        },
        "version" : {
          "type" : "integer",
          "format" : "int32"
        }
      },
      "x-WM-FULLY_QUALIFIED_NAME" : "createClientLocationConfig.hipClient",
      "x-WM-TAGS" : [ "RestServiceVirtualController" ]
    },
    "hipClientLocation" : {
      "required" : [ "address1", "address2", "city", "clientId", "clientLocationId", "createdBy", "createdDatetime", "emailId", "fax", "hipClient", "hipClientLocationByParentLocationId", "hipState", "hipTimezone", "lastUpdatedDatetime", "locStatus", "locationDescription", "locationLabel", "locationName", "parentLocationId", "phoneNumber", "pmLocationId", "pmLocationName", "shortLocationName", "stateId", "timezoneId", "updatedBy", "version", "zip" ],
      "properties" : {
        "city" : {
          "type" : "string"
        },
        "locationDescription" : {
          "type" : "string"
        },
        "clientLocationId" : {
          "type" : "integer",
          "format" : "int32"
        },
        "emailId" : {
          "type" : "string"
        },
        "hipState" : {
          "$ref" : "#/definitions/hipState"
        },
        "shortLocationName" : {
          "type" : "string"
        },
        "fax" : {
          "type" : "string"
        },
        "pmLocationId" : {
          "type" : "string"
        },
        "pmLocationName" : {
          "type" : "string"
        },
        "zip" : {
          "type" : "string"
        },
        "hipClient" : {
          "$ref" : "#/definitions/hipClient"
        },
        "parentLocationId" : {
          "type" : "string"
        },
        "clientId" : {
          "type" : "integer",
          "format" : "int32"
        },
        "locationName" : {
          "type" : "string"
        },
        "updatedBy" : {
          "type" : "string"
        },
        "address2" : {
          "type" : "string"
        },
        "address1" : {
          "type" : "string"
        },
        "hipClientLocationByParentLocationId" : {
          "type" : "string"
        },
        "stateId" : {
          "type" : "integer",
          "format" : "int32"
        },
        "lastUpdatedDatetime" : {
          "type" : "string"
        },
        "locationLabel" : {
          "type" : "string"
        },
        "version" : {
          "type" : "integer",
          "format" : "int32"
        },
        "locStatus" : {
          "type" : "string"
        },
        "phoneNumber" : {
          "type" : "string"
        },
        "createdBy" : {
          "type" : "string"
        },
        "timezoneId" : {
          "type" : "integer",
          "format" : "int32"
        },
        "createdDatetime" : {
          "type" : "string"
        },
        "hipTimezone" : {
          "$ref" : "#/definitions/hipTimezone"
        }
      },
      "x-WM-FULLY_QUALIFIED_NAME" : "createClientLocationConfig.hipClientLocation",
      "x-WM-TAGS" : [ "RestServiceVirtualController" ]
    },
    "hipConfig" : {
      "required" : [ "configDescription", "configId", "configKey", "configName", "createdBy", "createdDatetime", "dataType", "lastUpdatedDatetime", "updatedBy", "version" ],
      "properties" : {
        "configName" : {
          "type" : "string"
        },
        "configKey" : {
          "type" : "string"
        },
        "updatedBy" : {
          "type" : "integer",
          "format" : "int32"
        },
        "createdBy" : {
          "type" : "integer",
          "format" : "int32"
        },
        "configId" : {
          "type" : "integer",
          "format" : "int32"
        },
        "configDescription" : {
          "type" : "string"
        },
        "dataType" : {
          "type" : "string"
        },
        "lastUpdatedDatetime" : {
          "type" : "integer",
          "format" : "int64"
        },
        "createdDatetime" : {
          "type" : "integer",
          "format" : "int64"
        },
        "version" : {
          "type" : "integer",
          "format" : "int32"
        }
      },
      "x-WM-FULLY_QUALIFIED_NAME" : "createClientLocationConfig.hipConfig",
      "x-WM-TAGS" : [ "RestServiceVirtualController" ]
    },
    "RootRequest" : {
      "required" : [ "clientLocationConfigId", "clientLocationId", "configId", "configStatus", "configValue", "createdBy", "createdDatetime", "lastUpdatedDatetime", "locConfigDescription", "updatedBy", "version" ],
      "properties" : {
        "clientLocationConfigId" : {
          "type" : "integer",
          "format" : "int32"
        },
        "updatedBy" : {
          "type" : "string"
        },
        "createdBy" : {
          "type" : "string"
        },
        "configId" : {
          "type" : "integer",
          "format" : "int32"
        },
        "lastUpdatedDatetime" : {
          "type" : "string"
        },
        "clientLocationId" : {
          "type" : "integer",
          "format" : "int32"
        },
        "createdDatetime" : {
          "type" : "string"
        },
        "configStatus" : {
          "type" : "string"
        },
        "locConfigDescription" : {
          "type" : "string"
        },
        "configValue" : {
          "type" : "string"
        },
        "version" : {
          "type" : "integer",
          "format" : "int32"
        }
      },
      "x-WM-FULLY_QUALIFIED_NAME" : "createClientLocationConfig.RootRequest",
      "x-WM-TAGS" : [ "RestServiceVirtualController" ]
    },
    "hipTimezone" : {
      "required" : [ "locationName", "timezoneId", "timezoneName" ],
      "properties" : {
        "locationName" : {
          "type" : "string"
        },
        "timezoneId" : {
          "type" : "integer",
          "format" : "int32"
        },
        "timezoneName" : {
          "type" : "string"
        }
      },
      "x-WM-FULLY_QUALIFIED_NAME" : "createClientLocationConfig.hipTimezone",
      "x-WM-TAGS" : [ "RestServiceVirtualController" ]
    },
    "hipCountry" : {
      "required" : [ "countryId", "countryLongName", "countryName", "createdBy", "createdDatetime", "iso2Code", "iso3Code", "lastUpdatedDatetime", "updatedBy", "version" ],
      "properties" : {
        "updatedBy" : {
          "type" : "string"
        },
        "createdBy" : {
          "type" : "integer",
          "format" : "int32"
        },
        "countryLongName" : {
          "type" : "string"
        },
        "iso2Code" : {
          "type" : "string"
        },
        "lastUpdatedDatetime" : {
          "type" : "string"
        },
        "createdDatetime" : {
          "type" : "string"
        },
        "countryName" : {
          "type" : "string"
        },
        "iso3Code" : {
          "type" : "string"
        },
        "version" : {
          "type" : "integer",
          "format" : "int32"
        },
        "countryId" : {
          "type" : "integer",
          "format" : "int32"
        }
      },
      "x-WM-FULLY_QUALIFIED_NAME" : "createClientLocationConfig.hipCountry",
      "x-WM-TAGS" : [ "RestServiceVirtualController" ]
    },
    "hipState" : {
      "required" : [ "countryId", "hipCountry", "stateCode", "stateId", "stateName" ],
      "properties" : {
        "stateName" : {
          "type" : "string"
        },
        "stateId" : {
          "type" : "integer",
          "format" : "int32"
        },
        "stateCode" : {
          "type" : "string"
        },
        "hipCountry" : {
          "$ref" : "#/definitions/hipCountry"
        },
        "countryId" : {
          "type" : "integer",
          "format" : "int32"
        }
      },
      "x-WM-FULLY_QUALIFIED_NAME" : "createClientLocationConfig.hipState",
      "x-WM-TAGS" : [ "RestServiceVirtualController" ]
    },
    "RootResponse" : {
      "required" : [ "clientLocationConfigId", "clientLocationId", "configId", "configStatus", "configValue", "createdBy", "createdDatetime", "hipClientLocation", "hipConfig", "lastUpdatedDatetime", "locConfigDescription", "updatedBy", "version" ],
      "properties" : {
        "updatedBy" : {
          "type" : "string"
        },
        "lastUpdatedDatetime" : {
          "type" : "string"
        },
        "clientLocationId" : {
          "type" : "integer",
          "format" : "int32"
        },
        "configStatus" : {
          "type" : "string"
        },
        "configValue" : {
          "type" : "string"
        },
        "version" : {
          "type" : "integer",
          "format" : "int32"
        },
        "clientLocationConfigId" : {
          "type" : "integer",
          "format" : "int32"
        },
        "createdBy" : {
          "type" : "string"
        },
        "configId" : {
          "type" : "integer",
          "format" : "int32"
        },
        "hipClientLocation" : {
          "$ref" : "#/definitions/hipClientLocation"
        },
        "hipConfig" : {
          "$ref" : "#/definitions/hipConfig"
        },
        "createdDatetime" : {
          "type" : "string"
        },
        "locConfigDescription" : {
          "type" : "string"
        }
      },
      "x-WM-FULLY_QUALIFIED_NAME" : "createClientLocationConfig.RootResponse",
      "x-WM-TAGS" : [ "RestServiceVirtualController" ]
    }
  }
}